participant,group-id,n-comments,n-votes,n-agree,n-disagree,0,1,2,3,4,5,6,7,8,9,10,11,12,13,14,15,16
0,1,3,13,7,2,0,-1,1,1,1,1,1,-1,0,1,0,,,,,1,0
1,2,0,10,5,3,-1,-1,1,-1,1,0,1,0,1,1,,,,,,,
2,3,1,13,9,3,-1,1,1,1,1,1,1,1,0,1,1,-1,-1,,,,
3,1,0,1,0,1,-1,,,,,,,,,,,,,,,,
4,1,0,2,1,1,-1,1,,,,,,,,,,,,,,,
5,1,0,2,0,1,-1,0,,,,,,,,,,,,,,,
6,1,2,13,5,2,-1,-1,1,0,0,0,1,1,0,1,1,0,0,,,,
7,0,0,2,0,2,-1,-1,,,,,,,,,,,,,,,
8,0,0,3,1,2,-1,-1,1,,,,,,,,,,,,,,
9,0,4,17,11,6,-1,-1,1,-1,1,1,1,1,1,1,1,1,1,1,-1,-1,-1
10,1,0,3,2,1,-1,1,1,,,,,,,,,,,,,,
11,3,0,17,11,1,-1,0,1,1,1,1,1,1,0,1,0,0,1,1,0,1,1
12,0,0,3,1,2,-1,-1,1,,,,,,,,,,,,,,
13,2,0,6,2,4,-1,-1,1,-1,1,-1,,,,,,,,,,,
14,0,0,7,4,2,-1,-1,1,0,1,1,1,,,,,,,,,,
15,,0,4,2,0,0,,1,,0,,1,,,,,,,,,,
16,0,0,17,11,2,-1,-1,1,1,1,0,1,1,0,1,1,1,1,0,1,0,1
17,,0,1,0,1,-1,,,,,,,,,,,,,,,,
18,2,0,10,5,5,-1,-1,1,1,1,-1,1,-1,-1,1,,,,,,,
19,3,0,10,5,3,-1,1,-1,1,1,0,1,1,0,-1,,,,,,,
20,,0,1,0,1,-1,,,,,,,,,,,,,,,,
21,2,0,10,4,5,-1,-1,1,0,-1,-1,1,1,-1,1,,,,,,,
22,0,0,10,5,2,0,-1,1,-1,0,1,1,1,0,1,,,,,,,
23,2,0,10,2,2,0,0,1,-1,0,-1,1,0,0,0,,,,,,,
24,3,0,10,7,2,-1,-1,1,1,1,1,1,1,0,1,,,,,,,
25,2,0,8,2,4,-1,-1,1,-1,1,0,,-1,0,,,,,,,,
26,3,0,10,6,2,-1,-1,1,1,0,1,1,1,0,1,,,,,,,
27,2,0,10,1,3,-1,-1,0,-1,0,1,0,0,0,0,,,,,,,
28,2,0,10,4,5,1,-1,0,-1,1,1,1,-1,-1,-1,,,,,,,
29,4,0,10,4,5,-1,-1,1,-1,-1,1,1,1,0,-1,,,,,,,
30,4,0,10,5,4,-1,-1,1,-1,1,1,1,1,0,-1,,,,,,,
32,2,0,10,5,5,-1,-1,1,-1,1,-1,1,-1,1,1,,,,,,,
33,,0,3,2,1,-1,,,1,,,,,,1,,,,,,,
34,3,0,10,5,3,-1,-1,-1,1,1,1,1,1,0,0,,,,,,,
35,0,0,10,4,4,-1,-1,0,1,0,1,1,1,-1,-1,,,,,,,
36,3,0,10,5,4,-1,-1,-1,1,0,1,-1,1,1,1,,,,,,,
37,2,0,10,1,5,-1,-1,1,0,0,0,-1,-1,0,-1,,,,,,,
38,2,0,10,0,0,0,0,0,0,0,0,0,0,0,0,,,,,,,
39,3,0,17,12,4,-1,1,1,1,1,1,1,1,0,1,1,-1,-1,1,-1,1,1
40,3,0,10,7,1,-1,1,1,1,1,0,1,1,0,1,,,,,,,
41,3,0,10,7,2,-1,-1,1,1,1,1,0,1,1,1,,,,,,,
42,3,0,10,9,1,-1,1,1,1,1,1,1,1,1,1,,,,,,,
43,3,0,10,5,3,-1,-1,-1,0,1,1,1,1,0,1,,,,,,,
44,3,0,17,11,4,0,1,1,1,1,1,1,1,1,1,1,-1,-1,1,-1,0,-1
45,0,0,7,3,1,-1,,,0,1,1,0,1,0,,,,,,,,
46,3,0,10,8,2,-1,-1,1,1,1,1,1,1,1,1,,,,,,,
47,4,3,17,11,4,-1,-1,1,1,1,0,1,1,0,-1,1,1,1,1,1,-1,1
49,3,0,13,7,2,-1,-1,1,1,1,0,1,1,0,1,1,0,0,,,,
51,3,0,13,9,3,-1,-1,0,1,1,1,1,1,1,1,1,-1,1,,,,
52,1,0,17,9,6,-1,-1,1,-1,0,0,1,1,1,1,1,-1,-1,1,-1,1,1
53,2,1,17,6,6,0,-1,1,-1,0,0,1,1,0,1,-1,0,-1,1,-1,-1,1
54,0,0,13,8,1,-1,0,1,0,0,1,1,1,1,0,1,1,1,,,,
55,1,0,13,4,3,1,-1,0,1,0,0,1,1,0,0,0,-1,-1,,,,
56,0,0,13,10,1,0,-1,1,1,0,1,1,1,1,1,1,1,1,,,,
57,0,0,13,8,5,-1,-1,1,1,1,1,1,1,1,-1,-1,-1,1,,,,
58,4,0,13,6,4,-1,-1,1,-1,0,1,1,1,0,-1,1,0,1,,,,
59,4,2,16,10,5,-1,-1,1,-1,1,0,1,1,1,-1,1,1,-1,1,1,1,
60,3,0,11,8,1,0,,0,1,1,1,1,1,1,,1,,1,,-1,,
61,3,0,17,14,1,0,1,0,1,1,1,1,1,1,1,1,1,1,1,-1,1,1
62,4,0,16,10,6,-1,-1,1,-1,1,1,1,-1,1,-1,1,1,1,1,1,-1,
63,4,0,16,9,7,-1,-1,1,-1,1,1,-1,1,-1,-1,1,1,1,1,1,-1,
64,,0,3,1,2,-1,-1,1,,,,,,,,,,,,,,
65,0,1,17,11,6,-1,-1,1,1,1,-1,1,1,-1,1,1,1,1,-1,1,-1,1
68,1,0,17,10,7,-1,-1,1,1,1,-1,1,-1,1,1,1,-1,-1,1,1,-1,1
69,4,0,17,9,6,0,-1,1,-1,1,1,1,-1,-1,-1,1,1,0,1,1,-1,1
70,1,0,17,3,2,-1,0,-1,0,0,1,0,0,0,0,0,0,0,0,0,1,1
71,1,0,17,8,3,-1,-1,1,0,0,-1,1,1,0,1,0,0,0,1,1,1,1
72,2,0,17,6,6,0,-1,1,-1,1,0,1,0,0,1,1,0,-1,-1,-1,-1,1
73,2,0,17,9,6,-1,-1,1,0,0,1,1,-1,-1,1,1,1,-1,1,1,-1,1
74,0,0,17,10,6,-1,-1,1,1,1,1,-1,1,1,-1,1,-1,1,-1,1,0,1
75,4,0,17,10,3,-1,-1,1,-1,0,1,1,1,0,0,1,1,1,1,1,0,1
76,4,0,17,11,3,-1,-1,1,-1,0,1,1,1,1,0,1,1,1,1,1,0,1
77,4,0,10,5,3,-1,,-1,-1,,0,,1,,0,1,1,1,,,,1
78,1,0,13,3,3,-1,,0,0,,-1,1,1,0,0,0,0,,-1,0,,1
48,1,0,11,5,1,,0,1,0,0,-1,1,,0,1,1,1,0,,,,
50,,0,4,1,2,,-1,0,,,,,,,,1,-1,,,,,
31,,0,4,1,0,,,0,,,0,1,,0,,,,,,,,
66,0,0,8,6,2,,,,1,,1,1,,,-1,,,1,1,-1,,1
67,,0,1,1,0,,,,,,,,,1,,,,,,,,
